'TITLE',"'AUTHOR (first, last)'","'AUTHOR (last, first)'",'DATE','LCC','DDC','ISBN',"'PUBLICATION INFO'",'COMMENTS','RATING','REVIEW',"'ENTRY DATE'",'COPIES','SUBJECTS','TAGS'
"Computer Power and Human Reason","Joseph Weizenbaum","Weizenbaum, Joseph",1984,,,[0140225358],"Penguin Books Ltd (1984), Paperback, 320 pages",,0,,"2010-08-01 08:52:58",1,"Computer programming > 
Computer programming
Computers > 
Computers
Computers and civilization > 
Computers and civilization","technology,software,tools"
"Abstracting craft : the practiced digital hand","Malcolm McCullough","McCullough, Malcolm",1996,"QA76.9.C65M393 1996",004/.01/9,[0262133261],"Cambridge, Mass. : MIT Press, c1996.",,0,,"2010-08-01 09:49:42",1,"Digital computer simulation
Virtual reality","tools,practice"
"Software design and usability : talks with Bonnie Nardi, Jakob Nielsen, David Smith, Austin Henderson & Jed Harris, Terry Winograd, Stephanie Rosenbaum","Klaus Kaasgaard","Kaasgaard, Klaus",2000,"QA76.9.U83K33 2000",,[8716134958],"Copenhagen : Copenhagen Business School, 2000.",,0,,"2010-08-01 09:49:59",1,"Computer programmers Interviews
Computer software Development
Human-computer interaction
User interfaces (Computer systems)","interface,usability"
"Information ecologies : using technology with heart","Bonnie A. Nardi","Nardi, Bonnie A.",1999,"T14.5.N344 1999",303.48/3,[0262140667],"Cambridge, Mass. : MIT Press, c1999.",,0,,"2010-08-01 09:50:06",1,"Technology Social aspects","interface,usability"
"Software studies : a lexicon","Matthew Fuller","Fuller, Matthew",2008,"QA76.754.S64723 2008",005.1,[9780262062749],"Cambridge, Mass. : MIT Press, c2008.",,0,,"2010-08-01 09:52:16",1,"Computer software
Computers and civilization Encyclopedias
Programming languages (Electronic computers) Lexicography
Technology and the arts","software,essay"
"Media ecologies : materialist energies in art and technoculture","Matthew Fuller","Fuller, Matthew",2005,"BH201.F85 2005",700/.1/05,[026206247X],"Cambridge, Mass. : MIT Press, c2005.",,0,,"2010-08-01 09:52:22",1,"Aesthetics, Modern
Digital communications
Mass media Aesthetics
Technology and the arts
Telecommunication","software,standards"
"The Wiki way : quick collaboration on the Web","Bo Leuf","Leuf, Bo",2005,,,[020171499X],"Boston [u.a.] : Addison-Wesley, 2005.",,0,,"2010-08-01 09:59:17",1,"Wikis (Computer science)",software
"CODE : collaborative ownership and the digital economy","Rishab Aiyer Ghosh","Ghosh, Rishab Aiyer",2005,"HF5548.32.C62 2005",302.3,[0262572362],"Cambridge, Mass. : MIT Press, c2005.",,0,,"2010-08-01 09:59:56",1,"Alliances stratégiques (Affaires)
Bien commun
Commerce électronique Coopération internationale
Common good
Décision de groupe
E-business
Electronic commerce International cooperation
Group decision making
Intellectual property Economic aspects
Intellectuele eigendom
Internationale ondernemingen
Propriété intellectuelle Aspect économique
Strategic alliances (Business)
Strategisch management","software,programming,collaboration,practice"
"Standards and their stories : how quantifying, classifying, and formalizing practices shape everyday life","Martha Lampland","Lampland, Martha",2009,"HD62.S785 2009",389/.6,[0801447178],"Ithaca : Cornell University Press, 2009.",,0,,"2010-08-01 10:01:22",1,"Classification Social aspects
Measurement Social aspects
Standardization Social aspects",standards
"Sorting things out : classification and its consequences","Geoffrey C. Bowker","Bowker, Geoffrey C.",2002,,,[0262522950],"Cambridge (MA): MIT Press, 2002.",,0,,"2010-08-01 10:01:38",1,"luokitukset
tiedonsosiologia",standards
"The craftsman","Richard Sennett","Sennett, Richard",2008,,306.36,[9780713998733],"London ; New York : Allen Lane, 2008.",,0,,"2010-08-01 10:02:24",1,"Artisans
Creative ability
Hantverkare
Labor
Material culture
Materiell kultur",practice
"The cathedral and the bazaar musings on Linux and Open Source by an accidental revolutionary","Eric S. Raymond","Raymond, Eric S.",2001,,,[0596001088],"Beijing O&#039;Reilly 2001",,0,,"2010-08-01 10:05:54",1,"Linux
Open source software","collaboration,software culture"
"The future of ideas","Lawrence Lessig","Lessig, Lawrence",2003,,323.44,[0375726446],"New York : London : Random House ; Hi Marketing, 2003.",,0,,"2010-08-01 10:06:11",1,"Intellectual freedom United States
Intellectual property United States","collaboration,free culture,utopians"
"Close to the machine : technophilia and its discontents : a memoir","Ellen Ullman","Ullman, Ellen",1997,"QA76.2.U43A3 1997",005.1/092B,[0872863379],"San Francisco : City Lights Books, 1997.",,0,,"2010-08-01 10:08:08",1,"Computer programmers Biography","software,practice"
"Modern typography : an essay in critical history","Robin Kinross","Kinross, Robin",1994,"IN PROCESS (UTILITY LOAD)",,[],"London : Hyphen Press, 1994.",,0,,"2010-08-01 10:08:27",1,"Graphic design (Typography)
Printing History","typography,history"
"Virtual ethnography","Christine Hine","Hine, Christine",2000,"HM851.H56 2000",,[0761958959],"London ; Thousand Oaks, Calif. : SAGE, 2000.",,0,,"2010-08-01 10:13:11",1,"Internet Social aspects"
"Workplace studies : recovering work practice and informing system design","Paul Luff","Luff, Paul",2000,"HD58.8.L84 2000",,[0521591864],"Cambridge, UK ; New York, NY, USA : Cambridge University Press, 2000.",,0,,"2010-08-01 10:15:44",1,"Communication and technology
Communication in design
Organizational change Management
Technological innovations Employee participation
Technological innovations Management"
"The social life of information","John Seely Brown","Brown, John Seely",2002,"HM851.B76 2002",303.48/33,[1578517087],"Boston : Harvard Business School Press, c2002.",,0,,"2010-08-01 10:17:03",1,"Information society
Information technology Social aspects"
"Digital ground : architecture, pervasive computing, and environmental knowing","Malcolm McCullough","McCullough, Malcolm",2005,,303.4832,[0262633272],"Cambridge, Mass. ; London : MIT, 2005.",,0,,"2010-08-01 10:19:46",1,"Computer architecture
Embedded computer systems Social aspects
Human-computer interaction
System theory",interface
"Studio culture : the secret life of the graphic design studio","Tony Brook","Brook, Tony",2009,N7430,,[9780956207104],"London : Unit Editions, 2009.",,0,,"2010-08-01 10:20:14",1,"Graphic arts Technique","graphic design,practice"
"Human-machine reconfigurations : plans and situated actions","Lucille Alice Suchman","Suchman, Lucille Alice",2007,"T59.7.S83 2007",004.01/9,[0521858917],"Cambridge ; New York : Cambridge University Press, 2007.",,0,,"2010-08-01 10:20:42",1,"Cognition and culture
Ethnophilosophy
Human-machine systems","practice,manuals"
"The mythical man-month : essays on software engineering","Frederick P. Brooks","Brooks, Frederick P.",1995,"QA76.758.B75 1995",005.1/068,[0201835959],"Reading, Mass. : Addison-Wesley Pub. Co., 1995.",,0,,"2010-08-01 10:23:22",1,"Software engineering","software culture,practice"
"The practice of everyday life","Michel de Certeau","Certeau, Michel de",2007,,,[0520236998],"Berkeley [u.a.] : Univ. of California Press, [2007].",,0,,"2010-08-01 10:25:33",1,"Resistance (Psychoanalysis) > 
Social history > 
Social history > Addresses, essays, lectures > 
Social history",practice
"The telephone book : technology--schizophrenia--electric speech","Avital Ronell","Ronell, Avital",1989,"P95.R65 1989",191,[0803238762],"Lincoln : University of Nebraska Press, c1989.",,0,,"2010-08-01 11:37:18",1,"Oral communication Philosophy
Oral communication Psychological aspects
Technology Psychological aspects
Telephone","tools,technology"
"Gramophone, film, typewriter","Friedrich A. Kittler","Kittler, Friedrich A.",1999,"P96.T42K5713 1999",302.2,[0804732337],"Stanford, Calif. : Stanford University Press, c1999.",,0,,"2010-08-01 11:40:38",1,"Communication and technology
Communication History",tools
"Cutting code : software and sociality","Adrian Mackenzie","Mackenzie, Adrian",2006,"QA76.754.M33 2006",303.48/33,[0820478237],"New York : Peter Lang, c2006.",,0,,"2010-08-01 11:44:47",1,"Coding theory
Computer software Social aspects","practice,software"
"Writing machines","N. Katherine Hayles","Hayles, N. Katherine",2002,"PN98.E4H39 2002",801/.95/0285,[0262083116],"Cambridge, Mass. : MIT Press, c2002.",,0,,"2010-08-01 11:47:45",1,"Criticism Data processing
Hypertext systems
Literature and technology",tools
"Behind the blip : essays on the culture of software","Matthew Fuller","Fuller, Matthew",2003,"QA76.76.H85F85 2003",004/.01/9,[1570271399],"Brooklyn, NY, USA : Autonomedia, c2003.",,0,,"2010-08-01 11:48:08",1,"Computer software Human factors
User interfaces (Computer systems)","software culture"
"Screen : essays on graphic design, new media, and visual culture","Jessica Helfand","Helfand, Jessica",2001,"P93.5.H45 2001",302.23,[1568983107],"New York : Princeton Architectural Press, 2001.",,0,,"2010-08-01 11:50:27",1,"Graphic arts
Visual communication","graphic design"
"Karl Gerstner: Designing Programmes","Harald Geisler","Geisler, Harald",2007,,720,[3037780932],"Lars Muller Publishers (2007), Editie: 3rd, Hardcover, <span id=""tr1949498096"" class=""trans"">120 pagina&#039;s</span>",,0,,"2010-08-01 11:55:00",1,,"graphic design,programming"
"The science of passionate interests : an introduction to Gabriel Tarde&#039;s economic anthropology","Bruno Latour","Latour, Bruno",2009,,,[0979405777],"Chicago, Ill. : Prickly Paradigm Press, 2009.",,0,,"2010-08-01 11:57:24",1,
"Pandora&#039;s hope : essays on the reality of science studies","Bruno Latour","Latour, Bruno",1999,"Q175.32.R42L38 1999",501,[0674653351],"Cambridge, Mass. : Harvard University Press, 1999.",,0,,"2010-08-01 11:58:02",1,"Realism
Science Philosophy",practice
"Edited clean version : technology and the culture of control","Raiford Guins","Guins, Raiford",2009,"P96.C42U655 2009",363.3/1,[081664814X],"Minneapolis : University of Minnesota Press, c2009.",,0,,"2010-08-01 12:00:37",1,"Internet United States. Access control
Mass media United States. Censorship
Motion pictures United States. Censorship
Television United States. Censorship
V-chips"
"Two bits : the cultural significance of free software","Christopher M. Kelty","Kelty, Christopher M.",2008,"HM851.K45 2008",303.48/33,[9780822342427],"Durham : Duke University Press, 2008.",,0,,"2010-08-01 12:03:58",1,"Information society
Open source software Social aspects"
"Floss art","Aymeric Mansoux","Mansoux, Aymeric",2008,"N7433.8.F676 2008",702/.85,[9781906496180],"[Poitiers, France : GOTO 10, in association with OpenMute, 2008]",,0,,"2010-08-01 12:04:26",1,,"f/loss,practice"
"Gender in translation : cultural identity and the politics of transmission","Sherry Simon","Simon, Sherry",1996,"PN241.S534 1996",418/.02/082,[0415115353],"London and New York : Routledge, 1996.",,0,,"2010-08-01 12:08:44",1,"Feminism and literature
Feminist theology
Translating and interpreting
Women translators"
"The translator&#039;s invisibility : a history of translation","Lawrence Venuti","Venuti, Lawrence",2008,"P306.2.V46 2008",418/.0209,[9780415394536],"New York : Routledge, 2008.",,0,,"2010-08-01 12:10:37",1,"English language Translating
Translating and interpreting History"
"A hacker manifesto","McKenzie Wark","Wark, McKenzie",2004,"HC79.I55W37 2004",303.48/33,[0674015436],"Cambridge, MA : Harvard University Press, 2004.",,0,,"2010-08-01 12:12:34",1,"Computer hackers > 
Computers and civilization > 
Digital divide > 
Information technology > Social aspects > 
Intellectual property > 
Social conflict","software culture"
"Designing Design","Kenya Hara","Hara, Kenya",2007,,745,[303778105X],"Lars Muller Publishers (2007), Hardcover, <span id=""tr1949498096"" class=""trans"">467 pagina&#039;s</span>",,0,,"2010-08-01 12:14:29",1,
"Protocol: How Control Exists After Decentralization (Leonardo Books)","AR Galloway","Galloway, AR",2006,,005.8,[0262572338],"MIT Press (2006), Editie: New edition, Paperback, <span id=""tr1949498096"" class=""trans"">286 pagina&#039;s</span>",,0,,"2010-08-01 12:15:06",1,,"standards,technology"
"Computers as theatre","Brenda Laurel","Laurel, Brenda",1993,"QA76.9.H85L38 1993",004/.01/9,[0201550601],"Reading, Mass. : Addison-Wesley Pub. Co., c1993.",,0,,"2010-08-01 12:17:00",1,"Human-computer interaction
User interfaces (Computer systems)","technology,theatre"
"The Gutenberg Galaxy: The Making of Typographic Man","Herbert Marshall McLuhan","McLuhan, Herbert Marshall",1962,,655.1,[0802060412],"University of Toronto Press (1962), Paperback, <span id=""tr1949498096"" class=""trans"">294 pagina&#039;s</span>",,0,,"2010-08-01 12:24:29",1,"Printing > 
Printing
Technology and civilization","history,publishing,typography"
"The scandals of translation : towards an ethics of difference","Lawrence Venuti","Venuti, Lawrence",1998,,418.02,[0415169291],"London : Routledge, 1998.",,0,,"2010-08-01 12:29:17",1,"Intercultural communication
Translating and interpreting Moral and ethical aspects"
"My mother was a computer : digital subjects and literary texts","N. Katherine Hayles","Hayles, N. Katherine",2005,"Q342.H39 2005",006.3,[0226321479],"Chicago : University of Chicago Press, 2005.",,0,,"2010-08-01 12:30:47",1,,"code,materiality"
"A discipline of programming","Edsger Wybe Dijkstra","Dijkstra, Edsger Wybe",1976,QA76.6.D54,001.6/42,[013215871X],"Englewood Cliffs, N.J. : Prentice-Hall, c1976.",,0,,"2010-08-01 12:31:28",1,"Computer programming > 
Computer programming","programming,practice"
"The art of computer programming","Donald Ervin Knuth","Knuth, Donald Ervin",1997,"QA76.6.K64 1997",005.1,[0201896850],"Reading, Mass. : Addison-Wesley, c1997-c1998.",,0,,"2010-08-01 12:32:22",1,"Computer algorithms
Electronic digital computers Programming","software culture"
"The corrosion of character : the personal consequences of work in the new capitalism","Richard Sennett","Sennett, Richard",1998,"HD8072.5.S46 1998",305.5/62,[0393046788],"New York : Norton, c1998.",,0,,"2010-08-01 12:33:21",1,"Labor > United States > 
Labor > United States
Work ethic > United States > 
Work ethic > United States
Working class > United States > 
Working class > United States","practice,work"
"Laboratory life : the construction of scientific facts","Bruno Latour","Latour, Bruno",1986,"QH315.L315 1986",574/.072,[069102832X],"Princeton, N.J. : Princeton University Press, c1986.",,0,,"2010-08-01 12:34:49",1,"Biology Methodology
Biology Research","practice,technology"
"Design by numbers","John Maeda","Maeda, John",1999,"QA76.6.M336 1999",005.1,[0262133547],"Cambridge, Mass. : MIT Press, 1999.",,0,,"2010-08-01 12:35:52",1,"Computer graphics > 
Computer programming","design,programming"
"Thinking with type : a critical guide for designers, writers, editors, & students","Ellen Lupton","Lupton, Ellen",2010,"Z246.L87 2010",686.2/2,[9781568989693],"New York : Princeton Architectural Press, 2010.",,0,,"2010-08-01 12:37:19",1,"Graphic design (Typography)
Type and type-founding","typography,graphic design"
"Acting with technology : activity theory and interaction design","Victor Kaptelinin","Kaptelinin, Victor",2006,"QA76.9.H85K45 2006",004.01/9,[9780262112987],"Cambridge, Mass. : MIT Press, c2006.",,0,,"2010-08-01 12:39:53",1,"Action theory
Design Human factors
Human-computer interaction
User interfaces (Computer systems)"
"Memory practices in the sciences","Geoffrey C. Bowker","Bowker, Geoffrey C.",2005,"Q387.B69 2005",501,[0262025892],"Cambridge, Mass. : MIT Press, c2005.",,0,,"2010-08-01 12:40:48",1,"Knowledge representation (Information theory)
Knowledge, Theory of
Science Information technology
Science Philosophy"
"Unjustified Texts: Perspectives on Typography","Robin Kinross","Kinross, Robin",2008,,745,[0907259170],"Hyphen Press (2008), Editie: New title, Paperback, <span id=""tr1949498096"" class=""trans"">338 pagina&#039;s</span>",,0,,"2010-08-01 12:42:00",1,,typography
"Graphic Artists Guild Handbook: Pricing & Ethical Guidelines","Graphic Artists Guild (U. S.)","S.), Graphic Artists Guild (U.",2007,,741,[0932102131],"Graphic Artists Guild (2007), Editie: 12, Paperback, <span id=""tr1949498096"" class=""trans"">352 pagina&#039;s</span>",,0,,"2010-08-01 13:06:01",1,"Artists > United States. > Legal status, laws, etc
Artists > United States. > Professional ethics
Graphic artists > United States. > Legal status, laws, etc
Graphic artists > United States. > Professional ethics
Graphic arts > United States > Marketing"
"I miss my pencil : a design exploration","Martin Bone","Bone, Martin",2009,"TS140 .I43B66 2009",745.2,[9780811860758],"San Francisco, Calif. : Chronicle, c2009.",,0,,"2010-08-01 15:30:59",1,,tools
"Beyond the desktop metaphor : designing integrated digital work environments","Victor Kaptelinin","Kaptelinin, Victor",2007,"QA76.9.H85.B539 2007",004.16,[026211304X],"Cambridge, Mass. : MIT Press, c2007.",,0,,"2010-08-01 16:45:16",1,"Human-computer interaction
Microcomputers
User interfaces (Computer systems)"
"The universe of information : the work of Paul Otlet for documentation and international organisation","W. B. Rayward","Rayward, W. B.",1975,,,[],"FID, 1975.",,0,,"2010-08-03 06:23:13",1,"Bibliographers > Belgium > Biography"
"Simulation and its discontents","Sherry Turkle","Turkle, Sherry",2009,"QA76.9.C65T87 2009",003/.3,[9780262012706],"Cambridge, Mass. : The MIT Press, c2009.",,0,,"2010-08-03 06:23:42",1,,"software culture,human machine interaction"
"The public and its problems","John Dewey","Dewey, John",1991,"JC251.D47 1991",321.8,[0804002541],"Athens : Swallow Press, [1991]",,0,,"2010-08-03 06:25:38",1,"Democracy
Political science
State, The"
"Code and other laws of cyberspace","Lawrence Lessig","Lessig, Lawrence",1999,"K564.C6L47 1999",303.48/33,[046503912X],"New York : Basic Books, c1999.",,0,,"2010-08-03 06:33:02",1,"Computers Law and legislation
Electronic commerce Law and legislation
Freedom of information
Information superhighway Law and legislation
Privacy, Right of"
"The idea of design","Victor Margolin","Margolin, Victor",1995,"NK1525.I34 1995",745.4,[0262631660],"Cambridge, Mass : MIT Press, [1995]",,0,,"2010-08-03 06:47:01",1,
"Thinking through craft","Glenn Adamson","Adamson, Glenn",2007,"N8510.A33 2007",745.5,[9781845206468],"New York : Berg, 2007.",,0,,"2010-08-03 06:48:12",1,"Art > Technique
Handicraft
Workmanship"
"Workspheres design and contemporary work styles","Paola Antonelli","Antonelli, Paola",2001,,,[0810962179],"New York Abrams cop. 2001",,0,,"2010-08-03 06:51:01",1,Design
"Distributed work","Pamela Hinds","Hinds, Pamela",2002,"HD51.D57 2002",658.4/036,[0262083051],"Cambridge, Mass. : MIT Press, c2002.",,0,,"2010-08-03 06:53:24",1,"Équipes de travail
Communication en gestion Innovations
Communication in management Technological innovations
Computer networks
Division du travail
Division internationale du travail
Division of labor
Globalization
International division of labor
Mondialisation
Réseaux d'ordinateurs
Teams in the workplace"
"Otto Neurath : the language of the global polis","Nader Vossoughian","Vossoughian, Nader",2008,"HT166.V677 2008",711.4092,[9789056623500],"Rotterdam : London : NAi Publishers ; Art Data [distributor], c2008.",,0,,"2010-08-03 06:58:27",1,"City planners Austria Biography
City planning Philosophy Exhibitions","information design,utopians"
